{
  "project_info": {
    "project_number": "440059627878",
    "firebase_url": "https://raxa-8a4e4.firebaseio.com",
    "project_id": "raxa-8a4e4",
    "storage_bucket": "raxa-8a4e4.appspot.com"
  },
  "client": [
    {
      "client_info": {
        "mobilesdk_app_id": "1:440059627878:android:cd382e56475e06bd",
        "android_client_info": {
          "package_name": "com.raxanotificationpush"
        }
      },
      "oauth_client": [
        {
          "client_id": "440059627878-l4iomefkgm7dsj8p147v8142ercc22r7.apps.googleusercontent.com",
          "client_type": 3
        }
      ],
      "api_key": [
        {
          "current_key": "AIzaSyA462n_9hZkg8g0IVScCbS3vG6Xwg_c8Ak"
        }
      ],
      "services": {
        "appinvite_service": {
          "other_platform_oauth_client": [
            {
              "client_id": "440059627878-l4iomefkgm7dsj8p147v8142ercc22r7.apps.googleusercontent.com",
              "client_type": 3
            }
          ]
        }
      }
    }
  ],
  "configuration_version": "1"
}